[gd_resource type="Theme" load_steps=6 format=2]

[ext_resource path="res://Fonts/Padauk-Regular.ttf" type="DynamicFontData" id=1]
[ext_resource path="res://Scenes/plataform.png" type="Texture" id=2]

[sub_resource type="StyleBoxFlat" id=3]
bg_color = Color( 0.0235294, 0.741176, 0.858824, 0.352941 )

[sub_resource type="StyleBoxTexture" id=2]
texture = ExtResource( 2 )
region_rect = Rect2( 0, 0, 64, 16 )
margin_left = 2.0
margin_right = 2.0
margin_top = 2.0
margin_bottom = 2.0

[sub_resource type="DynamicFont" id=1]
size = 20
outline_color = Color( 0, 0, 0, 1 )
use_mipmaps = true
use_filter = true
font_data = ExtResource( 1 )

[resource]
Button/styles/disabled = null
Button/styles/focus = null
Button/styles/hover = SubResource( 3 )
Button/styles/normal = SubResource( 2 )
Button/styles/pressed = null
Label/fonts/font = SubResource( 1 )
