[gd_scene load_steps=4 format=2]

[ext_resource path="res://Scenes/MobilePlataform.gd" type="Script" id=1]
[ext_resource path="res://Scenes/plataform.png" type="Texture" id=2]

[sub_resource type="RectangleShape2D" id=1]
extents = Vector2( 32, 8 )

[node name="MobilePlataform" type="Node2D"]
script = ExtResource( 1 )

[node name="StaticBody" type="KinematicBody2D" parent="."]

[node name="Sprite" type="Sprite" parent="StaticBody"]
texture = ExtResource( 2 )

[node name="CollisionShape2D" type="CollisionShape2D" parent="StaticBody"]
shape = SubResource( 1 )
