[gd_scene load_steps=11 format=2]

[ext_resource path="res://Scenes/FridgeAnimatedSprite.png" type="Texture" id=1]
[ext_resource path="res://Scenes/RespawnPoint.gd" type="Script" id=2]

[sub_resource type="RectangleShape2D" id=1]
extents = Vector2( 10, 20 )

[sub_resource type="AtlasTexture" id=2]
atlas = ExtResource( 1 )
region = Rect2( 0, 0, 16, 32 )

[sub_resource type="AtlasTexture" id=3]
atlas = ExtResource( 1 )
region = Rect2( 0, 0, 16, 32 )

[sub_resource type="AtlasTexture" id=4]
atlas = ExtResource( 1 )
region = Rect2( 16, 0, 16, 32 )

[sub_resource type="AtlasTexture" id=5]
atlas = ExtResource( 1 )
region = Rect2( 0, 32, 16, 32 )

[sub_resource type="AtlasTexture" id=6]
atlas = ExtResource( 1 )
region = Rect2( 16, 32, 16, 32 )

[sub_resource type="AtlasTexture" id=8]
atlas = ExtResource( 1 )
region = Rect2( 16, 32, 16, 32 )

[sub_resource type="SpriteFrames" id=7]
animations = [ {
"frames": [ SubResource( 2 ) ],
"loop": true,
"name": "default",
"speed": 5.0
}, {
"frames": [ SubResource( 3 ), SubResource( 4 ), SubResource( 5 ), SubResource( 6 ) ],
"loop": false,
"name": "open",
"speed": 5.0
}, {
"frames": [ SubResource( 8 ) ],
"loop": true,
"name": "opened",
"speed": 5.0
} ]

[node name="RespawnPoint" type="Node2D"]
script = ExtResource( 2 )

[node name="Area2D" type="Area2D" parent="."]

[node name="CollisionShape2D" type="CollisionShape2D" parent="Area2D"]
shape = SubResource( 1 )

[node name="Position2D" type="Position2D" parent="."]
position = Vector2( 0, -10 )

[node name="AnimatedSprite" type="AnimatedSprite" parent="."]
frames = SubResource( 7 )

[connection signal="body_entered" from="Area2D" to="." method="_on_Area2D_body_entered"]
